info face="" size=12 bold=0 italic=0 charset="" unicode=1 stretchH=100 smooth=1 aa=2 padding=0,0,0,0 spacing=0,0
common lineHeight=21 base=17 scaleW=512 scaleH=512 pages=1 packed=0 alphaChnl=0 redChnl=0 greenChnl=0 blueChnl=0
page id=0 file="fontTitleBack.png"
chars count=180
char id=0     x=259  y=74   width=13   height=13   xoffset=0    yoffset=4    xadvance=0    page=0    chnl=0
char id=32    x=0    y=0    width=0    height=0    xoffset=0    yoffset=0    xadvance=6    page=0    chnl=0
char id=33    x=300  y=131  width=5    height=13   xoffset=0    yoffset=4    xadvance=6    page=0    chnl=0
char id=34    x=212  y=146  width=9    height=9    xoffset=0    yoffset=4    xadvance=10   page=0    chnl=0
char id=35    x=0    y=131  width=13   height=13   xoffset=0    yoffset=4    xadvance=14   page=0    chnl=0
char id=36    x=355  y=74   width=13   height=21   xoffset=0    yoffset=0    xadvance=14   page=0    chnl=0
char id=37    x=30   y=131  width=13   height=13   xoffset=0    yoffset=4    xadvance=14   page=0    chnl=0
char id=39    x=117  y=146  width=5    height=9    xoffset=0    yoffset=4    xadvance=6    page=0    chnl=0
char id=40    x=274  y=74   width=9    height=21   xoffset=0    yoffset=0    xadvance=10   page=0    chnl=0
char id=41    x=285  y=74   width=9    height=21   xoffset=0    yoffset=0    xadvance=10   page=0    chnl=0
char id=42    x=249  y=146  width=9    height=9    xoffset=0    yoffset=4    xadvance=10   page=0    chnl=0
char id=43    x=15   y=131  width=13   height=13   xoffset=0    yoffset=4    xadvance=14   page=0    chnl=0
char id=44    x=110  y=146  width=5    height=9    xoffset=0    yoffset=12   xadvance=6    page=0    chnl=0
char id=45    x=0    y=160  width=9    height=5    xoffset=0    yoffset=8    xadvance=10   page=0    chnl=0
char id=46    x=401  y=146  width=5    height=5    xoffset=0    yoffset=12   xadvance=6    page=0    chnl=0
char id=47    x=127  y=131  width=13   height=13   xoffset=0    yoffset=4    xadvance=14   page=0    chnl=0
char id=48    x=318  y=131  width=9    height=13   xoffset=0    yoffset=4    xadvance=10   page=0    chnl=0
char id=49    x=289  y=131  width=9    height=13   xoffset=0    yoffset=4    xadvance=10   page=0    chnl=0
char id=50    x=307  y=131  width=9    height=13   xoffset=0    yoffset=4    xadvance=10   page=0    chnl=0
char id=51    x=395  y=131  width=9    height=13   xoffset=0    yoffset=4    xadvance=10   page=0    chnl=0
char id=52    x=384  y=131  width=9    height=13   xoffset=0    yoffset=4    xadvance=10   page=0    chnl=0
char id=53    x=373  y=131  width=9    height=13   xoffset=0    yoffset=4    xadvance=10   page=0    chnl=0
char id=54    x=362  y=131  width=9    height=13   xoffset=0    yoffset=4    xadvance=10   page=0    chnl=0
char id=55    x=351  y=131  width=9    height=13   xoffset=0    yoffset=4    xadvance=10   page=0    chnl=0
char id=56    x=340  y=131  width=9    height=13   xoffset=0    yoffset=4    xadvance=10   page=0    chnl=0
char id=57    x=329  y=131  width=9    height=13   xoffset=0    yoffset=4    xadvance=10   page=0    chnl=0
char id=58    x=219  y=131  width=5    height=13   xoffset=0    yoffset=4    xadvance=6    page=0    chnl=0
char id=59    x=387  y=74   width=5    height=17   xoffset=0    yoffset=4    xadvance=6    page=0    chnl=0
char id=60    x=124  y=146  width=9    height=9    xoffset=0    yoffset=8    xadvance=10   page=0    chnl=0
char id=61    x=495  y=116  width=9    height=13   xoffset=0    yoffset=4    xadvance=10   page=0    chnl=0
char id=62    x=135  y=146  width=9    height=9    xoffset=0    yoffset=8    xadvance=10   page=0    chnl=0
char id=63    x=274  y=131  width=13   height=13   xoffset=0    yoffset=4    xadvance=14   page=0    chnl=0
char id=64    x=112  y=131  width=13   height=13   xoffset=0    yoffset=4    xadvance=14   page=0    chnl=0
char id=65    x=341  y=97   width=13   height=13   xoffset=0    yoffset=4    xadvance=14   page=0    chnl=0
char id=66    x=356  y=97   width=13   height=13   xoffset=0    yoffset=4    xadvance=14   page=0    chnl=0
char id=67    x=371  y=97   width=13   height=13   xoffset=0    yoffset=4    xadvance=14   page=0    chnl=0
char id=68    x=386  y=97   width=13   height=13   xoffset=0    yoffset=4    xadvance=14   page=0    chnl=0
char id=69    x=401  y=97   width=13   height=13   xoffset=0    yoffset=4    xadvance=14   page=0    chnl=0
char id=70    x=427  y=97   width=13   height=13   xoffset=0    yoffset=4    xadvance=14   page=0    chnl=0
char id=71    x=453  y=97   width=13   height=13   xoffset=0    yoffset=4    xadvance=14   page=0    chnl=0
char id=72    x=468  y=97   width=13   height=13   xoffset=0    yoffset=4    xadvance=14   page=0    chnl=0
char id=73    x=483  y=97   width=13   height=13   xoffset=0    yoffset=4    xadvance=14   page=0    chnl=0
char id=74    x=0    y=116  width=13   height=13   xoffset=0    yoffset=4    xadvance=14   page=0    chnl=0
char id=75    x=57   y=116  width=13   height=13   xoffset=0    yoffset=4    xadvance=14   page=0    chnl=0
char id=76    x=72   y=116  width=13   height=13   xoffset=0    yoffset=4    xadvance=14   page=0    chnl=0
char id=77    x=87   y=116  width=13   height=13   xoffset=0    yoffset=4    xadvance=14   page=0    chnl=0
char id=78    x=162  y=116  width=13   height=13   xoffset=0    yoffset=4    xadvance=14   page=0    chnl=0
char id=79    x=177  y=116  width=13   height=13   xoffset=0    yoffset=4    xadvance=14   page=0    chnl=0
char id=80    x=218  y=116  width=13   height=13   xoffset=0    yoffset=4    xadvance=14   page=0    chnl=0
char id=81    x=248  y=116  width=13   height=13   xoffset=0    yoffset=4    xadvance=14   page=0    chnl=0
char id=82    x=263  y=116  width=13   height=13   xoffset=0    yoffset=4    xadvance=14   page=0    chnl=0
char id=83    x=293  y=116  width=13   height=13   xoffset=0    yoffset=4    xadvance=14   page=0    chnl=0
char id=84    x=308  y=116  width=13   height=13   xoffset=0    yoffset=4    xadvance=14   page=0    chnl=0
char id=85    x=338  y=116  width=13   height=13   xoffset=0    yoffset=4    xadvance=14   page=0    chnl=0
char id=86    x=428  y=116  width=13   height=13   xoffset=0    yoffset=4    xadvance=14   page=0    chnl=0
char id=87    x=450  y=116  width=13   height=13   xoffset=0    yoffset=4    xadvance=14   page=0    chnl=0
char id=88    x=465  y=116  width=13   height=13   xoffset=0    yoffset=4    xadvance=14   page=0    chnl=0
char id=89    x=480  y=116  width=13   height=13   xoffset=0    yoffset=4    xadvance=14   page=0    chnl=0
char id=90    x=45   y=131  width=13   height=13   xoffset=0    yoffset=4    xadvance=14   page=0    chnl=0
char id=91    x=296  y=74   width=9    height=21   xoffset=0    yoffset=0    xadvance=10   page=0    chnl=0
char id=92    x=97   y=131  width=13   height=13   xoffset=0    yoffset=4    xadvance=14   page=0    chnl=0
char id=93    x=307  y=74   width=9    height=21   xoffset=0    yoffset=0    xadvance=10   page=0    chnl=0
char id=94    x=390  y=146  width=9    height=5    xoffset=0    yoffset=4    xadvance=10   page=0    chnl=0
char id=95    x=489  y=146  width=13   height=5    xoffset=0    yoffset=16   xadvance=14   page=0    chnl=0
char id=96    x=463  y=146  width=9    height=5    xoffset=0    yoffset=4    xadvance=10   page=0    chnl=0
char id=97    x=190  y=146  width=9    height=9    xoffset=0    yoffset=8    xadvance=10   page=0    chnl=0
char id=98    x=75   y=131  width=9    height=13   xoffset=0    yoffset=4    xadvance=10   page=0    chnl=0
char id=99    x=168  y=146  width=9    height=9    xoffset=0    yoffset=8    xadvance=10   page=0    chnl=0
char id=100   x=86   y=131  width=9    height=13   xoffset=0    yoffset=4    xadvance=10   page=0    chnl=0
char id=101   x=146  y=146  width=9    height=9    xoffset=0    yoffset=8    xadvance=10   page=0    chnl=0
char id=102   x=142  y=131  width=9    height=13   xoffset=0    yoffset=4    xadvance=10   page=0    chnl=0
char id=103   x=153  y=131  width=9    height=13   xoffset=0    yoffset=8    xadvance=10   page=0    chnl=0
char id=104   x=164  y=131  width=9    height=13   xoffset=0    yoffset=4    xadvance=10   page=0    chnl=0
char id=105   x=175  y=131  width=5    height=13   xoffset=0    yoffset=4    xadvance=6    page=0    chnl=0
char id=106   x=377  y=74   width=8    height=17   xoffset=0    yoffset=4    xadvance=9    page=0    chnl=0
char id=107   x=182  y=131  width=9    height=13   xoffset=0    yoffset=4    xadvance=10   page=0    chnl=0
char id=108   x=193  y=131  width=9    height=13   xoffset=0    yoffset=4    xadvance=10   page=0    chnl=0
char id=109   x=312  y=146  width=13   height=9    xoffset=0    yoffset=8    xadvance=14   page=0    chnl=0
char id=110   x=271  y=146  width=9    height=9    xoffset=0    yoffset=8    xadvance=10   page=0    chnl=0
char id=111   x=179  y=146  width=9    height=9    xoffset=0    yoffset=8    xadvance=10   page=0    chnl=0
char id=112   x=226  y=131  width=9    height=13   xoffset=0    yoffset=8    xadvance=10   page=0    chnl=0
char id=113   x=237  y=131  width=9    height=13   xoffset=0    yoffset=8    xadvance=10   page=0    chnl=0
char id=114   x=379  y=146  width=9    height=9    xoffset=0    yoffset=8    xadvance=10   page=0    chnl=0
char id=115   x=157  y=146  width=9    height=9    xoffset=0    yoffset=8    xadvance=10   page=0    chnl=0
char id=116   x=248  y=131  width=13   height=13   xoffset=0    yoffset=4    xadvance=14   page=0    chnl=0
char id=117   x=260  y=146  width=9    height=9    xoffset=0    yoffset=8    xadvance=10   page=0    chnl=0
char id=118   x=353  y=146  width=9    height=9    xoffset=0    yoffset=8    xadvance=10   page=0    chnl=0
char id=119   x=338  y=146  width=13   height=9    xoffset=0    yoffset=8    xadvance=14   page=0    chnl=0
char id=120   x=327  y=146  width=9    height=9    xoffset=0    yoffset=8    xadvance=10   page=0    chnl=0
char id=121   x=263  y=131  width=9    height=13   xoffset=0    yoffset=8    xadvance=10   page=0    chnl=0
char id=122   x=223  y=146  width=9    height=9    xoffset=0    yoffset=8    xadvance=10   page=0    chnl=0
char id=123   x=318  y=74   width=13   height=21   xoffset=0    yoffset=0    xadvance=14   page=0    chnl=0
char id=124   x=348  y=74   width=5    height=21   xoffset=0    yoffset=0    xadvance=6    page=0    chnl=0
char id=125   x=333  y=74   width=13   height=21   xoffset=0    yoffset=0    xadvance=14   page=0    chnl=0
char id=126   x=474  y=146  width=13   height=5    xoffset=0    yoffset=8    xadvance=14   page=0    chnl=0
char id=161   x=443  y=116  width=5    height=13   xoffset=0    yoffset=4    xadvance=6    page=0    chnl=0
char id=162   x=394  y=74   width=9    height=17   xoffset=0    yoffset=4    xadvance=10   page=0    chnl=0
char id=163   x=413  y=116  width=13   height=13   xoffset=0    yoffset=4    xadvance=14   page=0    chnl=0
char id=164   x=398  y=116  width=13   height=13   xoffset=0    yoffset=4    xadvance=14   page=0    chnl=0
char id=165   x=383  y=116  width=13   height=13   xoffset=0    yoffset=4    xadvance=14   page=0    chnl=0
char id=166   x=370  y=74   width=5    height=21   xoffset=0    yoffset=0    xadvance=6    page=0    chnl=0
char id=167   x=353  y=116  width=13   height=13   xoffset=0    yoffset=4    xadvance=14   page=0    chnl=0
char id=168   x=448  y=146  width=13   height=5    xoffset=0    yoffset=4    xadvance=14   page=0    chnl=0
char id=169   x=323  y=116  width=13   height=13   xoffset=0    yoffset=4    xadvance=14   page=0    chnl=0
char id=171   x=282  y=146  width=13   height=9    xoffset=0    yoffset=8    xadvance=14   page=0    chnl=0
char id=172   x=297  y=146  width=13   height=9    xoffset=0    yoffset=8    xadvance=14   page=0    chnl=0
char id=174   x=278  y=116  width=13   height=13   xoffset=0    yoffset=4    xadvance=14   page=0    chnl=0
char id=175   x=433  y=146  width=13   height=5    xoffset=0    yoffset=3    xadvance=14   page=0    chnl=0
char id=176   x=426  y=146  width=5    height=5    xoffset=0    yoffset=4    xadvance=6    page=0    chnl=0
char id=177   x=233  y=116  width=13   height=13   xoffset=0    yoffset=4    xadvance=14   page=0    chnl=0
char id=180   x=415  y=146  width=9    height=5    xoffset=0    yoffset=4    xadvance=10   page=0    chnl=0
char id=181   x=207  y=116  width=9    height=13   xoffset=0    yoffset=8    xadvance=10   page=0    chnl=0
char id=182   x=192  y=116  width=13   height=13   xoffset=0    yoffset=4    xadvance=14   page=0    chnl=0
char id=184   x=408  y=146  width=5    height=5    xoffset=0    yoffset=16   xadvance=6    page=0    chnl=0
char id=187   x=364  y=146  width=13   height=9    xoffset=0    yoffset=8    xadvance=14   page=0    chnl=0
char id=188   x=147  y=116  width=13   height=13   xoffset=0    yoffset=4    xadvance=14   page=0    chnl=0
char id=189   x=132  y=116  width=13   height=13   xoffset=0    yoffset=4    xadvance=14   page=0    chnl=0
char id=190   x=117  y=116  width=13   height=13   xoffset=0    yoffset=4    xadvance=14   page=0    chnl=0
char id=191   x=102  y=116  width=13   height=13   xoffset=0    yoffset=4    xadvance=14   page=0    chnl=0
char id=192   x=405  y=74   width=13   height=17   xoffset=0    yoffset=0    xadvance=14   page=0    chnl=0
char id=193   x=420  y=74   width=13   height=17   xoffset=0    yoffset=0    xadvance=14   page=0    chnl=0
char id=194   x=435  y=74   width=13   height=17   xoffset=0    yoffset=0    xadvance=14   page=0    chnl=0
char id=195   x=450  y=74   width=13   height=17   xoffset=0    yoffset=0    xadvance=14   page=0    chnl=0
char id=196   x=465  y=74   width=13   height=17   xoffset=0    yoffset=0    xadvance=14   page=0    chnl=0
char id=197   x=480  y=74   width=13   height=17   xoffset=0    yoffset=0    xadvance=14   page=0    chnl=0
char id=198   x=22   y=116  width=13   height=13   xoffset=0    yoffset=4    xadvance=14   page=0    chnl=0
char id=199   x=0    y=97   width=13   height=17   xoffset=0    yoffset=4    xadvance=14   page=0    chnl=0
char id=200   x=15   y=97   width=13   height=17   xoffset=0    yoffset=0    xadvance=14   page=0    chnl=0
char id=201   x=30   y=97   width=13   height=17   xoffset=0    yoffset=0    xadvance=14   page=0    chnl=0
char id=202   x=45   y=97   width=13   height=17   xoffset=0    yoffset=0    xadvance=14   page=0    chnl=0
char id=203   x=60   y=97   width=13   height=17   xoffset=0    yoffset=0    xadvance=14   page=0    chnl=0
char id=204   x=75   y=97   width=13   height=17   xoffset=0    yoffset=0    xadvance=14   page=0    chnl=0
char id=205   x=90   y=97   width=13   height=17   xoffset=0    yoffset=0    xadvance=14   page=0    chnl=0
char id=206   x=105  y=97   width=13   height=17   xoffset=0    yoffset=0    xadvance=14   page=0    chnl=0
char id=207   x=120  y=97   width=13   height=17   xoffset=0    yoffset=0    xadvance=14   page=0    chnl=0
char id=209   x=135  y=97   width=13   height=17   xoffset=0    yoffset=0    xadvance=14   page=0    chnl=0
char id=210   x=150  y=97   width=13   height=17   xoffset=0    yoffset=0    xadvance=14   page=0    chnl=0
char id=211   x=165  y=97   width=13   height=17   xoffset=0    yoffset=0    xadvance=14   page=0    chnl=0
char id=212   x=180  y=97   width=13   height=17   xoffset=0    yoffset=0    xadvance=14   page=0    chnl=0
char id=213   x=195  y=97   width=13   height=17   xoffset=0    yoffset=0    xadvance=14   page=0    chnl=0
char id=214   x=210  y=97   width=13   height=17   xoffset=0    yoffset=0    xadvance=14   page=0    chnl=0
char id=215   x=326  y=97   width=13   height=13   xoffset=0    yoffset=4    xadvance=14   page=0    chnl=0
char id=216   x=204  y=131  width=13   height=13   xoffset=0    yoffset=4    xadvance=14   page=0    chnl=0
char id=217   x=225  y=97   width=13   height=17   xoffset=0    yoffset=0    xadvance=14   page=0    chnl=0
char id=218   x=240  y=97   width=13   height=17   xoffset=0    yoffset=0    xadvance=14   page=0    chnl=0
char id=219   x=285  y=97   width=13   height=17   xoffset=0    yoffset=0    xadvance=14   page=0    chnl=0
char id=220   x=270  y=97   width=13   height=17   xoffset=0    yoffset=0    xadvance=14   page=0    chnl=0
char id=221   x=255  y=97   width=13   height=17   xoffset=0    yoffset=0    xadvance=14   page=0    chnl=0
char id=223   x=311  y=97   width=13   height=14   xoffset=0    yoffset=4    xadvance=14   page=0    chnl=0
char id=224   x=22   y=146  width=9    height=11   xoffset=0    yoffset=6    xadvance=10   page=0    chnl=0
char id=225   x=33   y=146  width=9    height=11   xoffset=0    yoffset=6    xadvance=10   page=0    chnl=0
char id=226   x=406  y=131  width=9    height=12   xoffset=0    yoffset=5    xadvance=10   page=0    chnl=0
char id=227   x=417  y=131  width=9    height=12   xoffset=0    yoffset=5    xadvance=10   page=0    chnl=0
char id=228   x=428  y=131  width=9    height=12   xoffset=0    yoffset=5    xadvance=10   page=0    chnl=0
char id=229   x=416  y=97   width=9    height=13   xoffset=0    yoffset=4    xadvance=10   page=0    chnl=0
char id=230   x=234  y=146  width=13   height=9    xoffset=0    yoffset=8    xadvance=14   page=0    chnl=0
char id=231   x=442  y=97   width=9    height=13   xoffset=0    yoffset=8    xadvance=10   page=0    chnl=0
char id=232   x=44   y=146  width=9    height=11   xoffset=0    yoffset=6    xadvance=10   page=0    chnl=0
char id=233   x=55   y=146  width=9    height=11   xoffset=0    yoffset=6    xadvance=10   page=0    chnl=0
char id=234   x=439  y=131  width=9    height=12   xoffset=0    yoffset=5    xadvance=10   page=0    chnl=0
char id=235   x=450  y=131  width=9    height=12   xoffset=0    yoffset=5    xadvance=10   page=0    chnl=0
char id=236   x=498  y=97   width=5    height=13   xoffset=0    yoffset=4    xadvance=6    page=0    chnl=0
char id=237   x=15   y=116  width=5    height=13   xoffset=0    yoffset=4    xadvance=6    page=0    chnl=0
char id=238   x=37   y=116  width=5    height=13   xoffset=0    yoffset=4    xadvance=6    page=0    chnl=0
char id=239   x=44   y=116  width=11   height=13   xoffset=0    yoffset=4    xadvance=12   page=0    chnl=0
char id=241   x=461  y=131  width=9    height=12   xoffset=0    yoffset=5    xadvance=10   page=0    chnl=0
char id=242   x=66   y=146  width=9    height=11   xoffset=0    yoffset=6    xadvance=10   page=0    chnl=0
char id=243   x=77   y=146  width=9    height=11   xoffset=0    yoffset=6    xadvance=10   page=0    chnl=0
char id=244   x=472  y=131  width=9    height=12   xoffset=0    yoffset=5    xadvance=10   page=0    chnl=0
char id=245   x=11   y=146  width=9    height=12   xoffset=0    yoffset=5    xadvance=10   page=0    chnl=0
char id=246   x=494  y=131  width=9    height=12   xoffset=0    yoffset=5    xadvance=10   page=0    chnl=0
char id=247   x=368  y=116  width=13   height=13   xoffset=0    yoffset=4    xadvance=14   page=0    chnl=0
char id=248   x=201  y=146  width=9    height=9    xoffset=0    yoffset=8    xadvance=10   page=0    chnl=0
char id=249   x=88   y=146  width=9    height=11   xoffset=0    yoffset=6    xadvance=10   page=0    chnl=0
char id=250   x=99   y=146  width=9    height=11   xoffset=0    yoffset=6    xadvance=10   page=0    chnl=0
char id=251   x=483  y=131  width=9    height=12   xoffset=0    yoffset=5    xadvance=10   page=0    chnl=0
char id=252   x=0    y=146  width=9    height=12   xoffset=0    yoffset=5    xadvance=10   page=0    chnl=0
char id=253   x=300  y=97   width=9    height=15   xoffset=0    yoffset=6    xadvance=10   page=0    chnl=0
char id=255   x=495  y=74   width=9    height=16   xoffset=0    yoffset=5    xadvance=10   page=0    chnl=0
char id=8364  x=60   y=131  width=13   height=13   xoffset=0    yoffset=4    xadvance=14   page=0    chnl=0
kernings count=0
